%YAML 1.1
%TAG !u! tag:unity3d.com,2011:
--- !u!74 &7400000
AnimationClip:
  m_ObjectHideFlags: 0
  m_CorrespondingSourceObject: {fileID: 0}
  m_PrefabInstance: {fileID: 0}
  m_PrefabAsset: {fileID: 0}
  m_Name: Saltar
  serializedVersion: 6
  m_Legacy: 0
  m_Compressed: 0
  m_UseHighQualityCurve: 1
  m_RotationCurves: []
  m_CompressedRotationCurves: []
  m_EulerCurves: []
  m_PositionCurves: []
  m_ScaleCurves: []
  m_FloatCurves: []
  m_PPtrCurves:
  - curve:
    - time: 0
      value: {fileID: 21300000, guid: 02285d8cffdabeb47928c908e73ed23f, type: 3}
    - time: 0.083333336
      value: {fileID: 21300000, guid: 6139ffd124f50c348bbbfef30aaa9d20, type: 3}
    - time: 0.16666667
      value: {fileID: 21300000, guid: 2f9c21f1ce2281b40af3e3cd2eace573, type: 3}
    - time: 0.25
      value: {fileID: 21300000, guid: b675fb2acec10a34e950731f7d237927, type: 3}
    - time: 0.33333334
      value: {fileID: 21300000, guid: fd576b9df382a734e853d4e185d4ae02, type: 3}
    - time: 0.41666666
      value: {fileID: 21300000, guid: e24f48083aae8cc46a0a7e7fa8a092da, type: 3}
    - time: 0.5
      value: {fileID: 21300000, guid: 800f01e4cf840544588525eb73a17c1e, type: 3}
    - time: 0.5833333
      value: {fileID: 21300000, guid: aa82abf8408662947bc35255483776db, type: 3}
    - time: 0.6666667
      value: {fileID: 21300000, guid: 891f10f97744e7f45b4b2c149f951514, type: 3}
    - time: 0.75
      value: {fileID: 21300000, guid: b3f62a4a48c4ae94f8cc1a3fa0f39cb5, type: 3}
    - time: 0.8333333
      value: {fileID: 21300000, guid: e5e336f551911324ab350e694a7fa193, type: 3}
    - time: 0.9166667
      value: {fileID: 21300000, guid: 1d33db3a97d288b41bc4adb881d8e8f2, type: 3}
    attribute: m_Sprite
    path: 
    classID: 212
    script: {fileID: 0}
  m_SampleRate: 60
  m_WrapMode: 0
  m_Bounds:
    m_Center: {x: 0, y: 0, z: 0}
    m_Extent: {x: 0, y: 0, z: 0}
  m_ClipBindingConstant:
    genericBindings:
    - serializedVersion: 2
      path: 0
      attribute: 0
      script: {fileID: 0}
      typeID: 212
      customType: 23
      isPPtrCurve: 1
    pptrCurveMapping:
    - {fileID: 21300000, guid: 02285d8cffdabeb47928c908e73ed23f, type: 3}
    - {fileID: 21300000, guid: 6139ffd124f50c348bbbfef30aaa9d20, type: 3}
    - {fileID: 21300000, guid: 2f9c21f1ce2281b40af3e3cd2eace573, type: 3}
    - {fileID: 21300000, guid: b675fb2acec10a34e950731f7d237927, type: 3}
    - {fileID: 21300000, guid: fd576b9df382a734e853d4e185d4ae02, type: 3}
    - {fileID: 21300000, guid: e24f48083aae8cc46a0a7e7fa8a092da, type: 3}
    - {fileID: 21300000, guid: 800f01e4cf840544588525eb73a17c1e, type: 3}
    - {fileID: 21300000, guid: aa82abf8408662947bc35255483776db, type: 3}
    - {fileID: 21300000, guid: 891f10f97744e7f45b4b2c149f951514, type: 3}
    - {fileID: 21300000, guid: b3f62a4a48c4ae94f8cc1a3fa0f39cb5, type: 3}
    - {fileID: 21300000, guid: e5e336f551911324ab350e694a7fa193, type: 3}
    - {fileID: 21300000, guid: 1d33db3a97d288b41bc4adb881d8e8f2, type: 3}
  m_AnimationClipSettings:
    serializedVersion: 2
    m_AdditiveReferencePoseClip: {fileID: 0}
    m_AdditiveReferencePoseTime: 0
    m_StartTime: 0
    m_StopTime: 0.93333334
    m_OrientationOffsetY: 0
    m_Level: 0
    m_CycleOffset: 0
    m_HasAdditiveReferencePose: 0
    m_LoopTime: 0
    m_LoopBlend: 0
    m_LoopBlendOrientation: 0
    m_LoopBlendPositionY: 0
    m_LoopBlendPositionXZ: 0
    m_KeepOriginalOrientation: 0
    m_KeepOriginalPositionY: 1
    m_KeepOriginalPositionXZ: 0
    m_HeightFromFeet: 0
    m_Mirror: 0
  m_EditorCurves: []
  m_EulerEditorCurves: []
  m_HasGenericRootTransform: 0
  m_HasMotionFloatCurves: 0
  m_Events: []
